^C:\MESTRADO\1ANO\EDOM\EDOM-18-19-SFA-10\PROJECT-RESEARCH-TOPIC\REQUIREMENTS\DSL\GENERATEDCODE\SERIALIZATIONHELPER.TT
C:\MESTRADO\1ANO\EDOM\EDOM-18-19-SFA-10\PROJECT-RESEARCH-TOPIC\REQUIREMENTS\DSL\GENERATEDCODE\SERIALIZATIONHELPER.CS
^C:\MESTRADO\1ANO\EDOM\EDOM-18-19-SFA-10\PROJECT-RESEARCH-TOPIC\REQUIREMENTS\DSL\GENERATEDCODE\CONNECTIONBUILDERS.TT
C:\MESTRADO\1ANO\EDOM\EDOM-18-19-SFA-10\PROJECT-RESEARCH-TOPIC\REQUIREMENTS\DSL\GENERATEDCODE\CONNECTIONBUILDERS.CS
^C:\MESTRADO\1ANO\EDOM\EDOM-18-19-SFA-10\PROJECT-RESEARCH-TOPIC\REQUIREMENTS\DSL\GENERATEDCODE\DIAGRAM.TT
C:\MESTRADO\1ANO\EDOM\EDOM-18-19-SFA-10\PROJECT-RESEARCH-TOPIC\REQUIREMENTS\DSL\GENERATEDCODE\DIAGRAM.CS
^C:\MESTRADO\1ANO\EDOM\EDOM-18-19-SFA-10\PROJECT-RESEARCH-TOPIC\REQUIREMENTS\DSL\GENERATEDCODE\DIRECTIVEPROCESSOR.TT
C:\MESTRADO\1ANO\EDOM\EDOM-18-19-SFA-10\PROJECT-RESEARCH-TOPIC\REQUIREMENTS\DSL\GENERATEDCODE\DIRECTIVEPROCESSOR.CS
^C:\MESTRADO\1ANO\EDOM\EDOM-18-19-SFA-10\PROJECT-RESEARCH-TOPIC\REQUIREMENTS\DSL\GENERATEDCODE\DOMAINRELATIONSHIPS.TT
C:\MESTRADO\1ANO\EDOM\EDOM-18-19-SFA-10\PROJECT-RESEARCH-TOPIC\REQUIREMENTS\DSL\GENERATEDCODE\DOMAINRELATIONSHIPS.CS
^C:\MESTRADO\1ANO\EDOM\EDOM-18-19-SFA-10\PROJECT-RESEARCH-TOPIC\REQUIREMENTS\DSL\GENERATEDCODE\CONNECTORS.TT
C:\MESTRADO\1ANO\EDOM\EDOM-18-19-SFA-10\PROJECT-RESEARCH-TOPIC\REQUIREMENTS\DSL\GENERATEDCODE\CONNECTORS.CS
^C:\MESTRADO\1ANO\EDOM\EDOM-18-19-SFA-10\PROJECT-RESEARCH-TOPIC\REQUIREMENTS\DSL\GENERATEDCODE\DOMAINCLASSES.TT
C:\MESTRADO\1ANO\EDOM\EDOM-18-19-SFA-10\PROJECT-RESEARCH-TOPIC\REQUIREMENTS\DSL\GENERATEDCODE\DOMAINCLASSES.CS
^C:\MESTRADO\1ANO\EDOM\EDOM-18-19-SFA-10\PROJECT-RESEARCH-TOPIC\REQUIREMENTS\DSL\GENERATEDCODE\DOMAINMODELRESX.TT
C:\MESTRADO\1ANO\EDOM\EDOM-18-19-SFA-10\PROJECT-RESEARCH-TOPIC\REQUIREMENTS\DSL\GENERATEDCODE\DOMAINMODELRESX.RESX
^C:\MESTRADO\1ANO\EDOM\EDOM-18-19-SFA-10\PROJECT-RESEARCH-TOPIC\REQUIREMENTS\DSL\GENERATEDCODE\HELPKEYWORDHELPER.TT
C:\MESTRADO\1ANO\EDOM\EDOM-18-19-SFA-10\PROJECT-RESEARCH-TOPIC\REQUIREMENTS\DSL\GENERATEDCODE\HELPKEYWORDHELPER.CS
^C:\MESTRADO\1ANO\EDOM\EDOM-18-19-SFA-10\PROJECT-RESEARCH-TOPIC\REQUIREMENTS\DSL\GENERATEDCODE\MULTIPLICITYVALIDATION.TT
C:\MESTRADO\1ANO\EDOM\EDOM-18-19-SFA-10\PROJECT-RESEARCH-TOPIC\REQUIREMENTS\DSL\GENERATEDCODE\MULTIPLICITYVALIDATION.CS
^C:\MESTRADO\1ANO\EDOM\EDOM-18-19-SFA-10\PROJECT-RESEARCH-TOPIC\REQUIREMENTS\DSL\GENERATEDCODE\PROPERTIESGRID.TT
C:\MESTRADO\1ANO\EDOM\EDOM-18-19-SFA-10\PROJECT-RESEARCH-TOPIC\REQUIREMENTS\DSL\GENERATEDCODE\PROPERTIESGRID.CS
^C:\MESTRADO\1ANO\EDOM\EDOM-18-19-SFA-10\PROJECT-RESEARCH-TOPIC\REQUIREMENTS\DSL\GENERATEDCODE\REQUIREMENTSSCHEMA.TT
C:\MESTRADO\1ANO\EDOM\EDOM-18-19-SFA-10\PROJECT-RESEARCH-TOPIC\REQUIREMENTS\DSL\GENERATEDCODE\REQUIREMENTSSCHEMA.XSD
^C:\MESTRADO\1ANO\EDOM\EDOM-18-19-SFA-10\PROJECT-RESEARCH-TOPIC\REQUIREMENTS\DSL\GENERATEDCODE\DOMAINMODEL.TT
C:\MESTRADO\1ANO\EDOM\EDOM-18-19-SFA-10\PROJECT-RESEARCH-TOPIC\REQUIREMENTS\DSL\GENERATEDCODE\DOMAINMODEL.CS
^C:\MESTRADO\1ANO\EDOM\EDOM-18-19-SFA-10\PROJECT-RESEARCH-TOPIC\REQUIREMENTS\DSL\GENERATEDCODE\SERIALIZER.TT
C:\MESTRADO\1ANO\EDOM\EDOM-18-19-SFA-10\PROJECT-RESEARCH-TOPIC\REQUIREMENTS\DSL\GENERATEDCODE\SERIALIZER.CS
^C:\MESTRADO\1ANO\EDOM\EDOM-18-19-SFA-10\PROJECT-RESEARCH-TOPIC\REQUIREMENTS\DSL\GENERATEDCODE\SHAPES.TT
C:\MESTRADO\1ANO\EDOM\EDOM-18-19-SFA-10\PROJECT-RESEARCH-TOPIC\REQUIREMENTS\DSL\GENERATEDCODE\SHAPES.CS
^C:\MESTRADO\1ANO\EDOM\EDOM-18-19-SFA-10\PROJECT-RESEARCH-TOPIC\REQUIREMENTS\DSL\GENERATEDCODE\TOOLBOXHELPER.TT
C:\MESTRADO\1ANO\EDOM\EDOM-18-19-SFA-10\PROJECT-RESEARCH-TOPIC\REQUIREMENTS\DSL\GENERATEDCODE\TOOLBOXHELPER.CS
